{
  "project_info": {
    "project_number": "1015135996961",
    "project_id": "flexben-75839",
    "storage_bucket": "flexben-75839.appspot.com"
  },
  "client": [
    {
      "client_info": {
        "mobilesdk_app_id": "1:1015135996961:android:eacf489780c200fe102760",
        "android_client_info": {
          "package_name": "com.geonn.flexben"
        }
      },
      "oauth_client": [
        {
          "client_id": "1015135996961-j8dlsikvjoas2k7pi2dj1nivb4kql5ot.apps.googleusercontent.com",
          "client_type": 3
        }
      ],
      "api_key": [
        {
          "current_key": "AIzaSyBWOE7z6itLyrqE-rsRcYYPwPW8Adg5BAc"
        }
      ],
      "services": {
        "appinvite_service": {
          "other_platform_oauth_client": [
            {
              "client_id": "1015135996961-j8dlsikvjoas2k7pi2dj1nivb4kql5ot.apps.googleusercontent.com",
              "client_type": 3
            }
          ]
        }
      }
    }
  ],
  "configuration_version": "1"
}